Tidy Text Mining | Yuan Du
…
Read the book from gutenbergr package, after install gutenbergr package

We can Downloading books by ID (98 and 1400) from Project Gutenbergr.

library(gutenbergr)
library(dplyr)

book <-  gutenberg_download(c(98, 1400), meta_fields = "title") %>%
  group_by(title) %>%
  mutate(line = row_number()) %>%
  ungroup()

book

## # A tibble: 35,889 x 4
##    gutenberg_id text                             title                 line
##           <int> <chr>                            <chr>                <int>
##  1           98 A TALE OF TWO CITIES             A Tale of Two Cities     1
##  2           98 ""                               A Tale of Two Cities     2
##  3           98 A STORY OF THE FRENCH REVOLUTION A Tale of Two Cities     3
##  4           98 ""                               A Tale of Two Cities     4
##  5           98 By Charles Dickens               A Tale of Two Cities     5
##  6           98 ""                               A Tale of Two Cities     6
##  7           98 ""                               A Tale of Two Cities     7
##  8           98 CONTENTS                         A Tale of Two Cities     8
##  9           98 ""                               A Tale of Two Cities     9
## 10           98 ""                               A Tale of Two Cities    10
## # ... with 35,879 more rows

Process books into chapters and words in tidy data form

we need to restructure it as one-token-per-row format. As pre-processing, we divide these into chapters, use tidytext’s unnest_tokens to separate them into words, then remove stop_words. We’re treating every chapter as a separate “document”, each with a name like A Tale of Two cities or Great Expectations.

library(tidytext)
tidy_book <- book %>%
  unnest_tokens(word, text)

tidy_book

## # A tibble: 323,972 x 4
##    gutenberg_id title                 line word  
##           <int> <chr>                <int> <chr> 
##  1           98 A Tale of Two Cities     1 a     
##  2           98 A Tale of Two Cities     1 tale  
##  3           98 A Tale of Two Cities     1 of    
##  4           98 A Tale of Two Cities     1 two   
##  5           98 A Tale of Two Cities     1 cities
##  6           98 A Tale of Two Cities     3 a     
##  7           98 A Tale of Two Cities     3 story 
##  8           98 A Tale of Two Cities     3 of    
##  9           98 A Tale of Two Cities     3 the   
## 10           98 A Tale of Two Cities     3 french
## # ... with 323,962 more rows

tidy_book <- tidy_book %>%
  anti_join(get_stopwords())

#We can also use count to find the most common words in all the book as a whole
tidy_book %>%
  count(word, sort = TRUE)

## # A tibble: 14,594 x 2
##    word       n
##    <chr>  <int>
##  1 said    2010
##  2 mr      1333
##  3 one      940
##  4 now      715
##  5 joe      698
##  6 upon     655
##  7 time     640
##  8 little   638
##  9 miss     616
## 10 know     613
## # ... with 14,584 more rows

Sentiment analysis

Sentiment analysis can be done as an inner join. Three sentiment lexicons are available via the get_sentiments() function. Let’s examine how sentiment changes during each novel. Let’s find a sentiment score for each word using the Bing lexicon, then count the number of positive and negative words in defined sections of each novel.

library(tidyr)
get_sentiments("bing")

## # A tibble: 6,786 x 2
##    word        sentiment
##    <chr>       <chr>    
##  1 2-faces     negative 
##  2 abnormal    negative 
##  3 abolish     negative 
##  4 abominable  negative 
##  5 abominably  negative 
##  6 abominate   negative 
##  7 abomination negative 
##  8 abort       negative 
##  9 aborted     negative 
## 10 aborts      negative 
## # ... with 6,776 more rows

sentiment <- tidy_book %>%
  inner_join(get_sentiments("bing"), by = "word") %>% 
  count(title, index = line %/% 80, sentiment) %>% 
  spread(sentiment, n, fill = 0) %>% 
  mutate(sentiment = positive - negative)

sentiment

## # A tibble: 450 x 5
##    title                index negative positive sentiment
##    <chr>                <dbl>    <dbl>    <dbl>     <dbl>
##  1 A Tale of Two Cities     0        5        9         4
##  2 A Tale of Two Cities     1       28       28         0
##  3 A Tale of Two Cities     2       27       15       -12
##  4 A Tale of Two Cities     3       17       10        -7
##  5 A Tale of Two Cities     4       13       12        -1
##  6 A Tale of Two Cities     5       19       18        -1
##  7 A Tale of Two Cities     6       24       16        -8
##  8 A Tale of Two Cities     7       24       19        -5
##  9 A Tale of Two Cities     8        9       27        18
## 10 A Tale of Two Cities     9       29       23        -6
## # ... with 440 more rows
…
It looks like that A Table of Two Cities has more negative emotions and Great Expectations is more balanced on emotions.

Most common positive and negative words

One advantage of having the data frame with both sentiment and word is that we can analyze word counts that contribute to each sentiment.

bing_word_counts <- tidy_book %>%
  inner_join(get_sentiments("bing")) %>%
  count(word, sentiment, sort = TRUE)

bing_word_counts

## # A tibble: 2,575 x 3
##    word   sentiment     n
##    <chr>  <chr>     <int>
##  1 miss   negative    616
##  2 like   positive    541
##  3 well   positive    483
##  4 good   positive    473
##  5 great  positive    360
##  6 better positive    221
##  7 right  positive    172
##  8 poor   negative    164
##  9 dark   negative    160
## 10 work   positive    152
## # ... with 2,565 more rows
…
